<svg xmlns="http://www.w3.org/2000/svg" width="141" height="57" viewBox="0 0 141 57">
  <rect id="Rectangle_25" data-name="Rectangle 25" width="19" height="19" fill="#2846b8"/>
  <rect id="Rectangle_9483" data-name="Rectangle 9483" width="84" height="19" transform="translate(57)" fill="#2846b8"/>
  <rect id="Rectangle_26" data-name="Rectangle 26" width="38" height="38" transform="translate(19 19)" fill="#2846b8"/>
</svg>
