<svg xmlns="http://www.w3.org/2000/svg" xmlns:xlink="http://www.w3.org/1999/xlink" width="104.686" height="104.686" viewBox="0 0 104.686 104.686">
  <defs>
    <linearGradient id="linear-gradient" x1="0.863" x2="0.305" y2="1.422" gradientUnits="objectBoundingBox">
      <stop offset="0" stop-color="#c829a8"/>
      <stop offset="1" stop-color="#1d59e1"/>
    </linearGradient>
    <linearGradient id="linear-gradient-3" x1="1.278" y1="-3.119" x2="4.924" y2="5.736" xlink:href="#linear-gradient"/>
  </defs>
  <g id="Group_2942" data-name="Group 2942" transform="translate(6613.889 81.667)">
    <path id="Path_11107" data-name="Path 11107" d="M-6561.546,23.019a52.02,52.02,0,0,1-20.375-4.114,52.167,52.167,0,0,1-16.637-11.217A52.173,52.173,0,0,1-6609.776-8.95a52.015,52.015,0,0,1-4.113-20.374,52.26,52.26,0,0,1,13.274-34.835l.423.378a51.693,51.693,0,0,0-13.129,34.456,51.834,51.834,0,0,0,51.775,51.775,51.834,51.834,0,0,0,51.775-51.775A51.834,51.834,0,0,0-6561.546-81.1a51.661,51.661,0,0,0-27.123,7.664l-.3-.483a52.23,52.23,0,0,1,27.421-7.749,52.014,52.014,0,0,1,20.374,4.114,52.169,52.169,0,0,1,16.638,11.217A52.172,52.172,0,0,1-6513.317-49.7a52.007,52.007,0,0,1,4.114,20.374,52.007,52.007,0,0,1-4.114,20.374,52.172,52.172,0,0,1-11.217,16.638,52.164,52.164,0,0,1-16.638,11.217A52.013,52.013,0,0,1-6561.546,23.019Z" fill="url(#linear-gradient)"/>
    <path id="Path_11108" data-name="Path 11108" d="M-6507.84-19.566a4.722,4.722,0,0,1-4.717-4.717A4.722,4.722,0,0,1-6507.84-29a4.722,4.722,0,0,1,4.717,4.717A4.722,4.722,0,0,1-6507.84-19.566Zm0-8.866a4.154,4.154,0,0,0-4.149,4.149,4.154,4.154,0,0,0,4.149,4.149,4.153,4.153,0,0,0,4.149-4.149A4.153,4.153,0,0,0-6507.84-28.432Z" transform="translate(-86.945 -45.189)" fill="#b546dc"/>
    <circle id="Ellipse_25" data-name="Ellipse 25" cx="4.433" cy="4.433" r="4.433" transform="translate(-6536.511 -58.414)" fill="url(#linear-gradient)"/>
    <path id="Path_11109" data-name="Path 11109" d="M-6460.839,245.99a4.722,4.722,0,0,1-4.717-4.717,4.722,4.722,0,0,1,4.717-4.717,4.722,4.722,0,0,1,4.717,4.717A4.722,4.722,0,0,1-6460.839,245.99Zm0-8.866a4.153,4.153,0,0,0-4.148,4.149,4.153,4.153,0,0,0,4.148,4.149,4.154,4.154,0,0,0,4.149-4.149A4.154,4.154,0,0,0-6460.839,237.124Z" transform="translate(-127.273 -273.042)" fill="url(#linear-gradient-3)"/>
    <path id="Path_11110" data-name="Path 11110" d="M-6271.839,262.767a4.722,4.722,0,0,1-4.717-4.717,4.722,4.722,0,0,1,4.717-4.717,4.722,4.722,0,0,1,4.717,4.717A4.722,4.722,0,0,1-6271.839,262.767Zm0-8.866a4.154,4.154,0,0,0-4.149,4.149,4.154,4.154,0,0,0,4.149,4.149,4.154,4.154,0,0,0,4.149-4.149A4.154,4.154,0,0,0-6271.839,253.9Z" transform="translate(-289.439 -287.437)" fill="#2d60d3"/>
    <circle id="Ellipse_26" data-name="Ellipse 26" cx="4.433" cy="4.433" r="4.433" transform="translate(-6588.538 5.382)" fill="url(#linear-gradient)"/>
    <circle id="Ellipse_27" data-name="Ellipse 27" cx="4.433" cy="4.433" r="4.433" transform="translate(-6543.578 -20.064)" fill="#2d60d3"/>
    <circle id="Ellipse_36" data-name="Ellipse 36" cx="3.433" cy="3.433" r="3.433" transform="translate(-6575.562 -69.473)" fill="#2d60d3"/>
    <path id="Path_11111" data-name="Path 11111" d="M-6479.367,91.6a38.49,38.49,0,0,1-27.4-11.348,38.489,38.489,0,0,1-11.348-27.4,38.489,38.489,0,0,1,11.348-27.4,38.49,38.49,0,0,1,27.4-11.348,38.346,38.346,0,0,1,23.991,8.319l-.352.446a37.782,37.782,0,0,0-23.639-8.2,38.22,38.22,0,0,0-38.177,38.177,38.22,38.22,0,0,0,38.177,38.177,38.22,38.22,0,0,0,38.177-38.177,38.232,38.232,0,0,0-4.587-18.158l.5-.27a38.8,38.8,0,0,1,4.655,18.429,38.493,38.493,0,0,1-11.348,27.4A38.492,38.492,0,0,1-6479.367,91.6Z" transform="translate(-82.179 -82.18)" fill="#2d60d3"/>
    <path id="Path_11112" data-name="Path 11112" d="M-6405.591,341.637a26.861,26.861,0,0,1-19.053-7.879,26.773,26.773,0,0,1-7.484-14.37l.559-.1a26.214,26.214,0,0,0,7.327,14.067,26.407,26.407,0,0,0,37.3,0l.4.4A26.861,26.861,0,0,1-6405.591,341.637Z" transform="translate(-155.955 -344.03)" fill="url(#linear-gradient)"/>
    <path id="Path_11113" data-name="Path 11113" d="M-6371.4,132.5l-.541-.175a26.283,26.283,0,0,0-6.439-26.806,26.2,26.2,0,0,0-18.651-7.725,26.2,26.2,0,0,0-18.651,7.725,26.183,26.183,0,0,0-5.939,9.09l-.53-.205a26.76,26.76,0,0,1,6.067-9.286,26.768,26.768,0,0,1,19.053-7.892,26.766,26.766,0,0,1,19.052,7.892,26.877,26.877,0,0,1,7.2,12.972A27.039,27.039,0,0,1-6371.4,132.5Z" transform="translate(-164.52 -153.491)" fill="url(#linear-gradient)"/>
  </g>
</svg>
