<svg xmlns="http://www.w3.org/2000/svg" width="14.848" height="16.498" viewBox="0 0 14.848 16.498">
  <g id="ytb" transform="translate(810.263 0)">
    <path id="surface1" d="M5.191,2,6.3,6.124V8.6h.825V6.124L8.311,2H7.433L6.789,4.578H6.712L6.119,2Zm4.846,1.65a1.312,1.312,0,0,0-.928.335,1.093,1.093,0,0,0-.335.851V7.284a1.335,1.335,0,0,0,.335.954,1.2,1.2,0,0,0,.9.361,1.186,1.186,0,0,0,.9-.335,1.34,1.34,0,0,0,.335-.954V4.861A1.15,1.15,0,0,0,10.036,3.65Zm2.037,0V7.7a1.288,1.288,0,0,0,.155.7.487.487,0,0,0,.437.206,1.048,1.048,0,0,0,.516-.155,1.8,1.8,0,0,0,.49-.437V8.6h.876V3.65h-.825V7.284a1.605,1.605,0,0,1-.361.258.438.438,0,0,1-.231.1.218.218,0,0,1-.181-.078A.47.47,0,0,1,12.9,7.31V3.65Zm-2.062.825a.494.494,0,0,1,.309.078.34.34,0,0,1,.1.257V7.387a.383.383,0,0,1-.1.284.428.428,0,0,1-.309.1.436.436,0,0,1-.309-.1.41.41,0,0,1-.1-.284V4.81a.366.366,0,0,1,.1-.257A.505.505,0,0,1,10.012,4.475ZM4.65,9.424A1.652,1.652,0,0,0,3,11.074v5.774A1.652,1.652,0,0,0,4.65,18.5H16.2a1.652,1.652,0,0,0,1.65-1.65V11.074a1.652,1.652,0,0,0-1.65-1.65Zm-.078.825h2.6a.1.1,0,0,1,.1.1V11.1a.107.107,0,0,1-.1.1H6.4V16.77a.116.116,0,0,1-.1.1H5.475a.116.116,0,0,1-.1-.1V11.2h-.8a.108.108,0,0,1-.1-.1v-.747A.1.1,0,0,1,4.572,10.249Zm5.852,0h.825a.108.108,0,0,1,.1.1v1.882a1.675,1.675,0,0,1,.206-.154,1.39,1.39,0,0,1,.516-.181.813.813,0,0,1,.7.335,2.366,2.366,0,0,1,.129,1.109v2.681a.812.812,0,0,1-.825.9,1.222,1.222,0,0,1-.516-.13,1.081,1.081,0,0,1-.206-.154v.1a.116.116,0,0,1-.1.1h-.825a.116.116,0,0,1-.1-.1V10.352A.108.108,0,0,1,10.424,10.249Zm-3.3,1.65h.825a.116.116,0,0,1,.1.1v3.686c0,.161.054.232.129.232a1.262,1.262,0,0,0,.49-.284V12a.116.116,0,0,1,.1-.1H9.6a.108.108,0,0,1,.1.1v4.743a.108.108,0,0,1-.1.1H8.774a.108.108,0,0,1-.1-.1v-.258a2.154,2.154,0,0,1-.954.439.594.594,0,0,1-.516-.258,1.015,1.015,0,0,1-.181-.644V12A.116.116,0,0,1,7.124,11.9Zm7.785,0a1.135,1.135,0,0,1,.928.387,1.543,1.543,0,0,1,.36,1.057v1.031c0,.049-.029.1-.078.1H14.548v.98c0,.724.825.705.825.051V15.2c0-.049.01-.1.078-.1l.644-.026a.108.108,0,0,1,.1.1v.335a1.276,1.276,0,0,1-1.34,1.366,1.319,1.319,0,0,1-1.186-1.392v-2.14A1.261,1.261,0,0,1,14.909,11.9Zm.077.825a.36.36,0,0,0-.283.1.788.788,0,0,0-.052.361v.36H15.3v-.361a.621.621,0,0,0-.077-.36.359.359,0,0,0-.233-.1Zm-3.273.1a.384.384,0,0,0-.233.026.467.467,0,0,0-.129.1v2.913a.632.632,0,0,0,.155.1.328.328,0,0,0,.154.052c.106,0,.284-.01.284-.309V13.187a.434.434,0,0,0-.078-.283.2.2,0,0,0-.155-.078Z" transform="translate(-813.263 -2)" fill="#fff"/>
  </g>
</svg>
